a,b,c,d,label
7,2,13,10,1
13,4,22,17,1
10,2,22,9,0
11,7,20,7,0
9,12,1,11,1
6,7,5,0,0
18,19,20,2,0
1,10,5,6,1
17,0,2,9,1
18,3,18,11,0
15,11,12,12,0
9,18,2,6,1
21,16,17,6,0
0,20,7,20,1
6,0,3,15,0
8,7,19,17,1
5,7,21,0,1
22,21,20,16,0
2,2,8,1,0
17,21,2,19,0
19,11,17,2,1
12,12,22,10,0
10,22,6,9,1
8,3,5,15,1
2,13,3,12,1
10,20,9,20,1
6,13,1,18,0
2,7,1,5,0
21,21,4,1,0
22,9,15,0,0
6,10,4,1,0
2,9,12,6,0
21,6,19,15,1
2,6,15,9,1
9,3,5,21,1
21,13,3,10,1
0,21,13,3,1
19,21,12,18,0
11,21,7,4,1
8,15,17,15,0
20,14,8,4,1
12,1,20,1,1
11,2,22,7,1
15,6,14,9,0
20,17,12,7,0
4,16,3,11,0
17,9,12,1,1
20,4,6,8,1
22,16,13,13,1
17,12,0,8,1
6,5,2,1,1
13,2,2,11,1
22,17,15,8,0
20,3,22,2,0
3,2,3,1,0
5,2,21,18,0
8,9,19,8,1
15,15,21,4,0
17,7,11,7,1
15,17,22,19,1
10,9,9,10,1
13,12,21,13,0
0,11,16,21,1
8,12,18,4,0
19,6,7,4,0
6,3,4,21,1
22,13,16,13,0
16,1,14,19,0
20,2,20,15,0
14,10,15,22,1
4,15,20,19,1
5,15,0,0,0
13,11,3,2,0
2,22,14,14,1
20,4,20,17,1
4,8,2,14,0
14,15,5,11,0
20,5,22,20,0
7,10,1,6,0
16,8,4,14,0
0,14,2,11,1
11,1,7,8,0
9,14,5,5,0
11,2,2,9,0
3,3,6,10,1
3,9,22,18,1
9,0,20,12,0
7,20,13,22,0
13,15,3,15,0
0,22,16,16,0
14,15,12,12,0
11,18,6,2,0
3,5,12,10,1
4,5,21,12,0
9,2,13,3,1
3,4,12,13,0
6,16,20,20,1
3,18,2,13,0
4,5,1,7,0
